M48
; DRILL file {KiCad (5.1.0-rc1-139-g044d1793a)} date 2019 May 12, Sunday 13:58:25
; FORMAT={3:3/ absolute / metric / suppress leading zeros}
; #@! TF.CreationDate,2019-05-12T13:58:25+03:00
; #@! TF.GenerationSoftware,Kicad,Pcbnew,(5.1.0-rc1-139-g044d1793a)
FMAT,2
METRIC,TZ
T1C0.800
T2C1.000
T3C1.400
%
G90
G05
T1
X116840Y-89599
X116893Y-87058
X116914Y-84836
X118682Y-94298
X120206Y-108776
X120206Y-113602
X120221Y-111173
X120787Y-87651
X124677Y-102870
X125095Y-111633
X127000Y-102108
X128905Y-87249
X134747Y-123444
X136017Y-75248
X151321Y-82423
X152478Y-88367
X156972Y-88202
X159512Y-120714
X159702Y-103061
X160782Y-71946
X161735Y-132842
X161735Y-135382
X161798Y-130238
X163703Y-92329
X163703Y-94806
X163703Y-97409
X164529Y-108902
X167513Y-69596
X167767Y-97854
X168082Y-79248
X168308Y-118427
X168402Y-85217
X168466Y-125158
X170371Y-84773
X170624Y-124587
X176370Y-102395
X176370Y-105507
X192596Y-82423
X198564Y-85598
X199644Y-113030
X199771Y-108268
X199771Y-110554
X202121Y-118682
X204216Y-102616
X206248Y-101981
X207391Y-134620
T2
X136081Y-71946
X138621Y-71946
X116840Y-78486
X119380Y-78486
X121920Y-78486
X124460Y-78486
X127000Y-78486
X129540Y-78486
X132080Y-78486
X134620Y-78486
X143764Y-126746
X146304Y-126746
X148844Y-126746
X151384Y-126746
X153924Y-126746
X156464Y-126746
X138684Y-78486
X141224Y-78486
X143764Y-78486
X146304Y-78486
X148844Y-78486
X151384Y-78486
X153924Y-78486
X156464Y-78486
X125984Y-126746
X128524Y-126746
X131064Y-126746
X133604Y-126746
X136144Y-126746
X138684Y-126746
T3
X221742Y-130318
X221742Y-135319
T0
M30
